Frame: ChatFrame1
FrameLevel: 6
X: 8
Y: -958
W: 531
H: 234
Frame: ChatFrame2
FrameLevel: 8
X: 2329
Y: -964
W: 511
H: 225
Frame: EQL3_QuestWatchFrame
FrameLevel: 11
X: 3
Y: -290
Frame: KLHTM_Frame
FrameLevel: 1
X: 856
Y: -1018
Frame: RecapFrame
FrameLevel: 5
X: 1792
Y: -1014
Frame: SmartLoot_LootFrame
FrameLevel: 1
X: 534
Y: -693
Frame: SmartLoot_OptionsFrame
FrameLevel: 1
X: 1132
Y: -129
